<svg width="28" height="29" viewBox="0 0 28 29" fill="none" xmlns="http://www.w3.org/2000/svg">
<path fill-rule="evenodd" clip-rule="evenodd" d="M6.93656 0.612681C6.54818 0.0326587 6.1598 -0.0640117 5.48014 0.0326587C4.2179 0.225999 3.05276 0.32267 2.37309 1.09603C-2.19038 6.12289 0.0428088 13.0832 7.22785 20.8168C14.51 28.5504 21.3066 31.1605 26.6469 27.1004C27.5207 26.4237 27.7149 25.2636 27.9091 24.0069C28.1033 23.3302 28.0062 22.9435 27.4236 22.4602C27.3265 22.4602 21.8892 18.7867 21.8892 18.7867C20.5299 18.4 19.1705 20.2368 18.4909 21.1068C17.7141 21.9768 16.9374 22.1702 16.2577 21.6868C12.6652 19.2701 9.16975 15.4999 7.03366 11.8264C6.54818 11.0531 6.74237 10.2797 7.71332 9.6997C8.58718 8.92633 10.5291 7.76629 10.2378 6.4129C10.2378 6.4129 7.03366 0.709351 6.93656 0.612681Z" fill="#F0593E"/>
</svg>
