<svg width="21" height="16" viewBox="0 0 21 16" fill="none" xmlns="http://www.w3.org/2000/svg">
<path fill-rule="evenodd" clip-rule="evenodd" d="M14.3811 1.55643C15.0561 1.58486 15.6724 1.81228 16.23 2.38084L17.1985 5.5079C12.8257 6.33231 8.15953 6.33231 3.78678 5.5079L4.78459 2.38084C5.34219 1.81228 5.95848 1.58486 6.60412 1.55643C9.03994 1.30058 11.9747 1.30058 14.3811 1.55643ZM15.555 12.7854V14.1784C15.555 14.6333 15.9366 15.0312 16.4355 15.0312H19.018C19.4876 15.0312 19.8691 14.6333 19.8691 14.1784C19.8691 12.0747 19.8984 9.97108 19.8984 7.86742C19.781 7.61157 19.693 7.32729 19.5756 7.07144C21.894 7.27043 21.2484 5.02463 18.6072 5.22363L17.4333 1.98285C17.0811 1.10158 16.2594 0.561451 15.0561 0.277172C12.2388 -0.0923907 8.74647 -0.0923907 5.95848 0.277172C4.75524 0.561451 3.93352 1.10158 3.58135 1.98285L2.37812 5.22363C-0.23379 5.02463 -0.908777 7.27043 1.439 7.07144C1.32161 7.32729 1.23357 7.61157 1.11618 7.86742C1.11618 9.97108 1.11618 12.0747 1.11618 14.1784C1.11618 14.6333 1.52705 15.0312 1.9966 15.0312H4.57916C5.04872 15.0312 5.45958 14.6333 5.45958 14.1784V12.7854H15.555ZM2.73028 9.45938C2.73028 9.06139 2.75963 8.54969 2.75963 8.35069C2.78898 7.75371 3.78678 7.69685 4.05091 7.83899C4.08026 7.83899 5.95848 8.63497 6.89759 9.06139C7.04433 9.3741 7.04433 9.65838 6.86825 9.8858C5.10741 10.2554 3.43462 10.3406 2.73028 9.45938ZM18.2843 9.45938C18.2843 9.06139 18.2256 8.54969 18.2256 8.35069C18.2256 7.75371 17.2278 7.69685 16.9637 7.83899C16.905 7.83899 15.0561 8.63497 14.117 9.06139C13.9703 9.3741 13.9409 9.65838 14.117 9.8858C15.9072 10.2554 17.5506 10.3406 18.2843 9.45938Z" fill="#F0593E"/>
</svg>
