<svg width="33" height="37" viewBox="0 0 33 37" fill="none" xmlns="http://www.w3.org/2000/svg">
<path d="M28.3729 35.3353C29.5815 33.7516 29.5814 31.9242 28.6146 30.2187C28.1311 29.3659 27.406 28.5132 26.6809 27.7823C26.8018 27.7823 26.9226 27.6605 27.1644 27.6605C28.9772 27.1732 30.6692 26.3205 31.1526 24.3714C31.3943 23.3968 31.1526 22.1786 30.5483 21.4476C30.1857 20.9603 29.8232 20.4731 29.3397 20.1076C29.4606 20.1076 29.4606 20.1077 29.5815 19.9858C31.636 19.0113 33.5696 17.0621 32.8445 14.5039V14.3819C32.7237 13.8947 32.482 13.5292 32.1194 13.0419C31.3943 12.0674 30.3065 11.4583 29.2188 11.2146C29.4606 10.8492 29.7023 10.4837 29.944 10.1182C30.3066 9.50909 30.5483 8.77822 30.79 8.0473C30.9109 7.80366 30.9108 7.43825 31.0317 7.19461C31.3942 6.34186 31.7569 5.48902 31.7569 4.51445C31.9986 2.07803 29.944 0.0071286 27.6477 0.0071286C25.8349 -0.114693 24.2638 1.3471 23.1761 2.68714C22.5718 3.53988 21.9675 4.27078 21.4841 5.24535C21.2424 5.00171 21.0006 4.7581 20.7589 4.51445C19.6712 3.53988 18.3418 3.29633 17.0124 3.53997C15.8039 3.78362 14.7162 4.51454 13.8702 5.36729C12.7825 6.34186 12.1782 7.80366 12.299 9.26551C10.0028 9.26551 8.18993 11.0928 8.06908 13.5293C8.06908 14.5038 8.3108 15.3565 8.91508 16.2093C8.67337 16.3311 8.31079 16.453 8.06908 16.5748C7.94822 16.5748 7.82741 16.5748 7.5857 16.6966C6.25628 17.062 5.41026 18.1585 5.28941 19.6203C5.28941 20.2294 5.53112 20.8386 5.89369 21.3258C5.53112 21.3258 5.28942 21.3258 4.92686 21.3258C4.20172 21.3258 3.59743 21.4476 2.87229 21.6912C2.0263 22.0567 1.42204 22.4223 0.696904 23.0314C0.0926247 23.5186 -0.149087 24.7369 0.0926247 25.4678C0.576048 26.5642 1.18034 27.5387 2.14719 28.2696C3.23489 29.1223 4.32258 29.6096 5.53114 29.9751C6.61884 30.3406 7.70655 30.4624 8.79426 30.4624C9.64025 30.5842 10.4862 30.5842 11.2114 30.4624C12.0574 30.3406 13.0242 30.2188 13.8702 29.9751C14.4745 31.5588 15.5622 32.8989 16.8916 33.9953C18.5836 35.3353 20.6381 36.5534 22.9344 36.9189C24.7472 37.1625 27.1644 36.9189 28.3729 35.3353Z" fill="#7FAB59"/>
<path d="M9.37497 34.8495C8.87497 35.3274 8.375 35.9248 8 36.4027C8.25 36.4027 8.375 36.5221 8.625 36.6415C8.75 36.761 9.00003 36.8805 9.12503 37C9.62503 36.4027 10.125 35.9247 10.625 35.4468C11.625 34.2522 12.625 33.0575 13.5 31.8628C15.375 29.4734 17 26.8452 18.5 24.2169C18.5 24.2169 18.625 24.2168 18.625 24.3363C19.75 24.6947 20.875 24.8142 22 24.9336C23.25 25.0531 24.5 24.9337 25.75 24.8142C25.75 24.6947 25.75 24.6946 25.75 24.5752C25.75 24.5752 25.75 24.5752 25.75 24.4557C25.75 24.3363 25.75 24.2167 25.75 24.0973C25.75 23.9778 25.75 23.8585 25.75 23.6195C25.625 23.6195 25.625 23.6195 25.5 23.6195C24.375 23.739 23.25 23.739 22 23.739C21 23.739 20 23.6194 19.125 23.3805H19C19.5 22.4247 20.125 21.3495 20.5 20.3938C20.75 19.9159 20.875 19.4381 21.125 18.9602H21.2499C21.9999 18.9602 22.875 18.8407 23.625 18.6017C24.375 18.4823 25.125 18.2433 25.875 18.0044C25.875 17.646 25.875 17.1681 26 16.8097H25.875C25.125 17.1681 24.25 17.2876 23.5 17.407C22.875 17.5265 22.25 17.6461 21.625 17.6461C21.75 17.1682 22 16.6902 22.125 16.3318C22.875 14.4203 23.5 12.3894 24.5 10.5973C24.375 10.5973 24.375 10.4779 24.25 10.4779C24 10.3584 23.75 10.1195 23.375 10C22.375 11.792 21.625 13.8229 21 15.7344C20.75 16.4512 20.5 17.1681 20.25 17.7655C19 16.8097 17.625 15.6151 16.875 14.1814C16.625 14.5398 16.375 14.8981 16.125 15.1371C17 16.5707 18.375 17.7654 19.75 18.7212C19.75 18.7212 19.875 18.7213 19.875 18.8407C19.75 19.0797 19.625 19.438 19.5 19.677C18.875 20.9911 18.125 22.3054 17.5 23.6195L17.375 23.739C16.375 23.2611 15.25 22.6637 14.375 21.9469C13.625 21.3496 12.875 20.7523 12.375 20.0354C12.125 20.3938 11.875 20.6327 11.625 20.9911C12.125 21.5885 12.75 22.1858 13.375 22.7831C14.375 23.6194 15.5 24.3363 16.75 24.8142C15.375 27.0841 14 29.2346 12.375 31.385C11.5 32.5797 10.5 33.7743 9.37497 34.8495Z" fill="#76544B"/>
</svg>
